Samples/Filter0002.csv

#Digilent WaveForms Oscilloscope Acquisition
#Device Name: Discovery2NI
#Serial Number: SN:210321AD0E8F
#Date Time: 2021-07-28 10:56:13.425
#Sample rate: 16000Hz
#Samples: 8192
#Trigger: Source: Channel 1 Type: Edge Condition: Rising Level: 100 mV Hyst.: Auto HoldOff: 100 ns
#Channel 1: Range: 1 V/div Offset: 0 V Attenuation: 1 X
#Channel 2: Range: 1 V/div Offset: 0 V Attenuation: 1 X
#Wavegen Channel 1: Running
#Mode: Simple
#Type: Noise
#Frequency: 100 Hz
#Period: 10 ms
#Amplitude: 1 V
#Offset: 0 V
#Power Supplies: ON
#Positive Supply: ON
#Voltage: 4.5 V
#Negative Supply: ON
#Voltage: -4.5 V

Time (s),Channel 1 (V),Channel 2 (V)
-0.25596508620689656,0.7303773252921503,2.3871568008693016
-0.25590258620689654,0.7303773252921503,2.3871568008693016
-0.2558400862068966,0.7303773252921503,2.3871568008693016
-0.25577758620689656,0.7303773252921503,2.3871568008693016
-0.25571508620689654,0.7303773252921503,2.3871568008693016
-0.25565258620689657,0.7303773252921503,2.3871568008693016
-0.25559008620689655,0.7303773252921503,2.3871568008693016
-0.2555275862068966,0.7303773252921503,2.3871568008693016
-0.25546508620689656,0.7303773252921503,2.3871568008693016
-0.25540258620689654,0.7303773252921503,2.3871568008693016
-0.2553400862068966,0.7303773252921503,2.3871568008693016
-0.25527758620689656,0.7303773252921503,2.3871568008693016
-0.25521508620689654,0.7303773252921503,2.3871568008693016
-0.25515258620689657,0.7303773252921503,2.3871568008693016
-0.25509008620689655,0.7303773252921503,2.3871568008693016
-0.2550275862068966,0.7303773252921503,2.3871568008693016
-0.25496508620689656,0.7303773252921503,2.3871568008693016
-0.25490258620689654,0.7303773252921503,2.3871568008693016
-0.2548400862068966,0.7303773252921503,2.3871568008693016
-0.25477758620689656,0.7303773252921503,2.3871568008693016
-0.25471508620689653,0.7303773252921503,2.3871568008693016
-0.25465258620689657,0.7303773252921503,2.3871568008693016
-0.25459008620689655,0.7303773252921503,2.3871568008693016
-0.2545275862068966,0.7303773252921503,2.3871568008693016
-0.25446508620689656,0.7303773252921503,2.3871568008693016
-0.25440258620689654,0.7303773252921503,2.3871568008693016
-0.2543400862068966,0.7303773252921503,2.3871568008693016
-0.25427758620689656,0.7303773252921503,2.3871568008693016
-0.25421508620689653,0.7303773252921503,2.3871568008693016
-0.25415258620689657,0.7303773252921503,2.3871568008693016
-0.25409008620689655,0.7303773252921503,2.3871568008693016
-0.2540275862068966,0.7303773252921503,2.3871568008693016
-0.25396508620689656,0.7303773252921503,2.3871568008693016
-0.25390258620689654,0.7303773252921503,2.3871568008693016
-0.2538400862068966,0.7303773252921503,2.3871568008693016
-0.25377758620689655,0.7303773252921503,2.3871568008693016
-0.25371508620689653,0.7303773252921503,2.3871568008693016
-0.25365258620689657,0.7303773252921503,2.3871568008693016
-0.25359008620689655,0.7303773252921503,2.3871568008693016
-0.2535275862068966,0.7303773252921503,2.3871568008693016
-0.25346508620689656,0.7303773252921503,2.3871568008693016
-0.25340258620689654,0.7303773252921503,2.3908825660553354
-0.2533400862068966,0.7303773252921503,2.3871568008693034
-0.25327758620689655,0.7303773252921503,2.390882566055337
-0.25321508620689653,0.7303773252921503,2.3908825660553354
-0.25315258620689657,0.7303773252921503,2.3871568008693016
-0.25309008620689655,0.7303773252921503,2.390882566055337
-0.2530275862068966,0.7303773252921503,2.3871568008693034
-0.25296508620689656,0.7303773252921503,2.3871568008693016
-0.25290258620689654,0.7303773252921519,2.3871568008693034
-0.2528400862068966,0.7340884423030271,2.3908825660553354
-0.25277758620689655,0.7340884423030287,2.390882566055337
-0.25271508620689653,0.7303773252921519,2.390882566055337
-0.25265258620689657,0.7340884423030287,2.390882566055337
-0.25259008620689655,0.7303773252921503,2.390882566055337
-0.2525275862068966,0.7303773252921503,2.390882566055337
-0.25246508620689656,0.7303773252921503,2.3871568008693016
-0.25240258620689654,0.7303773252921503,2.390882566055337
-0.2523400862068966,0.7303773252921503,2.390882566055337
-0.25227758620689655,0.7303773252921503,2.3871568008693016
-0.25221508620689653,0.7303773252921503,2.390882566055337
-0.25215258620689657,0.7303773252921503,2.390882566055337
-0.25209008620689655,0.7303773252921503,2.390882566055337
-0.2520275862068966,0.7303773252921503,2.3871568008693034
-0.25196508620689656,0.7303773252921503,2.3871568008693016
-0.25190258620689654,0.7303773252921503,2.3908825660553354
-0.2518400862068966,0.7303773252921503,2.3871568008693034
-0.25177758620689655,0.7303773252921503,2.390882566055337
-0.25171508620689653,0.7303773252921503,2.390882566055337
-0.25165258620689657,0.7303773252921503,2.390882566055337
-0.25159008620689655,0.7303773252921503,2.390882566055337
-0.2515275862068966,0.7303773252921503,2.390882566055337
-0.25146508620689656,0.7303773252921503,2.390882566055337
-0.25140258620689654,0.7303773252921503,2.3908825660553354
-0.2513400862068966,0.7303773252921503,2.3871568008693034
-0.25127758620689655,0.7303773252921503,2.390882566055337
-0.25121508620689653,0.7340884423030287,2.390882566055337
-0.25115258620689657,0.7340884423030287,2.390882566055337
-0.25109008620689655,0.7303773252921503,2.390882566055337
-0.2510275862068966,0.7303773252921503,2.390882566055337
-0.25096508620689656,0.7303773252921503,2.390882566055337
-0.25090258620689654,0.7303773252921503,2.390882566055337
-0.2508400862068966,0.7303773252921503,2.390882566055337
-0.25077758620689655,0.7303773252921503,2.390882566055337
-0.25071508620689653,0.7303773252921503,2.390882566055337
-0.25065258620689657,0.7303773252921503,2.390882566055337
-0.25059008620689655,0.7303773252921503,2.390882566055337
-0.2505275862068966,0.7303773252921503,2.390882566055337
-0.25046508620689656,0.7340884423030287,2.390882566055337
-0.25040258620689654,0.7303773252921503,2.390882566055337
-0.2503400862068966,0.7303773252921503,2.390882566055337
-0.25027758620689655,0.7340884423030287,2.390882566055337
-0.25021508620689653,0.7340884423030287,2.390882566055339
-0.25015258620689657,0.7340884423030287,2.394608331241373
-0.25009008620689654,0.7340884423030287,2.390882566055337
-0.2500275862068966,0.5151325386612956,2.390882566055337
-0.24996508620689656,-0.2456464485689008,2.2269488978697813
-0.24990258620689657,-0.23822421454714376,1.8022116666617494
-0.24984008620689657,-0.23822421454714376,1.321587957663187
-0.24977758620689655,-0.23822421454714376,0.8856734308970491
-0.24971508620689656,-0.23451309753626523,0.5093711471074771
-0.24965258620689657,-0.23451309753626523,0.20013263666654163
-0.24959008620689657,-0.23451309753626523,-0.04949363079782794
-0.24952758620689655,-0.23822421454714376,-0.23950765528563164
-0.24946508620689656,-0.23822421454714376,-0.38481249754101093
-0.24940258620689656,-0.23451309753626523,-0.4928596879360366
-0.24934008620689657,-0.23822421454714376,-0.5748265220288147
-0.24927758620689655,-0.23451309753626523,-0.6344387650053805
-0.24921508620689656,-0.23451309753626523,-0.6754221820517695
-0.24915258620689656,-0.23822421454714376,-0.7052283035400525
-0.24909008620689657,-0.23822421454714376,-0.7313086598423
-0.24902758620689655,-0.23822421454714376,-0.7462117205864415
-0.24896508620689656,-0.23822421454714376,-0.761114781330583
-0.24890258620689656,-0.23822421454714376,-0.7685663117026537
-0.24884008620689657,-0.23822421454714376,-0.7760178420747245
-0.24877758620689655,-0.23822421454714376,-0.7797436072607598
-0.24871508620689656,-0.23822421454714376,-0.7834693724467952
-0.24865258620689656,-0.23822421454714376,-0.7871951376328306
-0.24859008620689657,-0.23451309753626523,-0.7871951376328306
-0.24852758620689655,-0.23822421454714376,-0.7909209028188658
-0.24846508620689656,-0.23822421454714376,-0.7909209028188658
-0.24840258620689656,-0.23822421454714376,-0.7946466680049012
-0.24834008620689657,-0.23822421454714376,-0.7946466680049012
-0.24827758620689655,-0.23822421454714376,-0.7946466680049012
-0.24821508620689656,-0.23822421454714376,-0.7983724331909366
-0.24815258620689656,-0.23822421454714376,-0.7983724331909366
-0.24809008620689657,-0.23822421454714376,-0.7983724331909366
-0.24802758620689655,-0.23822421454714376,-0.7983724331909366
-0.24796508620689656,-0.23822421454714376,-0.7983724331909366
-0.24790258620689656,-0.23451309753626523,-0.7983724331909366
-0.24784008620689657,-0.23822421454714376,-0.7983724331909366
-0.24777758620689655,-0.23822421454714376,-0.7983724331909366
-0.24771508620689656,-0.23822421454714376,-0.7983724331909366
-0.24765258620689656,-0.23451309753626523,-0.7983724331909366
-0.24759008620689657,-0.23822421454714376,-0.8020981983769719
-0.24752758620689655,-0.23822421454714376,-0.8020981983769719
-0.24746508620689656,-0.23822421454714376,-0.8020981983769719
-0.24740258620689656,-0.23822421454714376,-0.8020981983769719
-0.24734008620689657,-0.23822421454714376,-0.7983724331909366
-0.24727758620689655,-0.23822421454714376,-0.8020981983769719
-0.24721508620689656,-0.23822421454714376,-0.8020981983769719
-0.24715258620689656,-0.23451309753626523,-0.8020981983769719
-0.24709008620689657,-0.23822421454714376,-0.8020981983769719
-0.24702758620689655,-0.23822421454714376,-0.8020981983769719
-0.24696508620689656,-0.23451309753626523,-0.8020981983769719
-0.24690258620689656,-0.23822421454714376,-0.8020981983769719
-0.24684008620689657,-0.23822421454714376,-0.8020981983769719
-0.24677758620689655,-0.23822421454714376,-0.8020981983769719
-0.24671508620689656,-0.23822421454714376,-0.8020981983769719
-0.24665258620689656,-0.23822421454714376,-0.8020981983769719
-0.24659008620689657,-0.23822421454714376,-0.8020981983769719
-0.24652758620689655,-0.23451309753626523,-0.8020981983769719
-0.24646508620689656,-0.23451309753626523,-0.8058239635630073
-0.24640258620689656,-0.23451309753626523,-0.8058239635630073
-0.24634008620689657,-0.23451309753626523,-0.8020981983769719
-0.24627758620689655,-0.23451309753626523,-0.8020981983769719
-0.24621508620689656,-0.23451309753626523,-0.8020981983769719
-0.24615258620689656,-0.23822421454714376,-0.8020981983769719
-0.24609008620689657,-0.23451309753626523,-0.8020981983769719
-0.24602758620689655,-0.23822421454714376,-0.8020981983769719
-0.24596508620689655,-0.23451309753626523,-0.8058239635630073
-0.24590258620689656,-0.23822421454714376,-0.8058239635630073
-0.24584008620689657,-0.23822421454714376,-0.8020981983769719
-0.24577758620689655,-0.23451309753626523,-0.8058239635630073
-0.24571508620689655,-0.23822421454714376,-0.8020981983769719
-0.24565258620689656,-0.23822421454714376,-0.8020981983769719
-0.24559008620689657,-0.23822421454714376,-0.8058239635630073
-0.24552758620689655,-0.23822421454714376,-0.8020981983769719
-0.24546508620689655,-0.23822421454714376,-0.8058239635630073
-0.24540258620689656,-0.23822421454714376,-0.8058239635630073
-0.24534008620689657,-0.23822421454714376,-0.8058239635630073
-0.24527758620689655,-0.23822421454714376,-0.8058239635630073
-0.24521508620689655,-0.23822421454714376,-0.8058239635630073
-0.24515258620689656,-0.23822421454714376,-0.8020981983769719
-0.24509008620689657,-0.23822421454714376,-0.8020981983769719
-0.24502758620689655,-0.23451309753626523,-0.8020981983769719
-0.24496508620689655,-0.23822421454714376,-0.8058239635630073
-0.24490258620689656,-0.23822421454714376,-0.8058239635630073
-0.24484008620689657,-0.23822421454714376,-0.8058239635630073
-0.24477758620689655,-0.23822421454714376,-0.8058239635630073
-0.24471508620689655,-0.23451309753626523,-0.8058239635630073
-0.24465258620689656,-0.23822421454714376,-0.8058239635630073
-0.24459008620689657,-0.23822421454714376,-0.8058239635630073
-0.24452758620689655,-0.23822421454714376,-0.8058239635630073
-0.24446508620689655,-0.23822421454714376,-0.8058239635630073
-0.24440258620689656,-0.23822421454714376,-0.8058239635630073
-0.24434008620689657,-0.23822421454714376,-0.8058239635630073
-0.24427758620689655,-0.23822421454714376,-0.8058239635630073
-0.24421508620689655,-0.23822421454714376,-0.8058239635630073
-0.24415258620689656,-0.23822421454714376,-0.8058239635630073
-0.24409008620689657,-0.23822421454714376,-0.8058239635630073
-0.24402758620689655,-0.23822421454714376,-0.8058239635630073
-0.24396508620689655,-0.23822421454714376,-0.8058239635630073
-0.24390258620689656,-0.23822421454714376,-0.8058239635630073
-0.24384008620689657,-0.23451309753626523,-0.8058239635630073
-0.24377758620689655,-0.23822421454714376,-0.8058239635630073
-0.24371508620689655,-0.23822421454714376,-0.8058239635630073
-0.24365258620689656,-0.23451309753626523,-0.8058239635630073
-0.24359008620689657,-0.23822421454714376,-0.8058239635630073
-0.24352758620689655,-0.23451309753626523,-0.8058239635630073
-0.24346508620689655,-0.23822421454714376,-0.8058239635630073
-0.24340258620689656,-0.23451309753626523,-0.8058239635630073
-0.24334008620689657,-0.23822421454714376,-0.8058239635630073
-0.24327758620689655,-0.23822421454714376,-0.8058239635630073
-0.24321508620689655,-0.23822421454714376,-0.8058239635630073
-0.24315258620689656,-0.23822421454714376,-0.8058239635630073
-0.24309008620689657,-0.23822421454714376,-0.8058239635630073
-0.24302758620689655,-0.23822421454714376,-0.8058239635630073
-0.24296508620689655,-0.23451309753626523,-0.8058239635630073
-0.24290258620689656,-0.23451309753626523,-0.8058239635630073
-0.24284008620689657,-0.23451309753626523,-0.8058239635630073
-0.24277758620689655,-0.23451309753626523,-0.8058239635630073
-0.24271508620689655,-0.23822421454714376,-0.8058239635630073
-0.24265258620689656,-0.23822421454714376,-0.8058239635630073
-0.24259008620689657,-0.23451309753626523,-0.8058239635630073
-0.24252758620689654,-0.23822421454714376,-0.8095497287490427
-0.24246508620689655,-0.23822421454714376,-0.8058239635630073
-0.24240258620689656,-0.23822421454714376,-0.8095497287490427
-0.24234008620689657,-0.23822421454714376,-0.8058239635630073
-0.24227758620689654,-0.23822421454714376,-0.8095497287490427
-0.24221508620689655,-0.23822421454714376,-0.8058239635630073
-0.24215258620689656,-0.23451309753626523,-0.8058239635630073
-0.24209008620689657,-0.23822421454714376,-0.8058239635630073
-0.24202758620689657,-0.23822421454714376,-0.8058239635630073
-0.24196508620689655,-0.23822421454714376,-0.8058239635630073
-0.24190258620689656,-0.23822421454714376,-0.8058239635630073
-0.24184008620689657,-0.23822421454714376,-0.8058239635630073
-0.24177758620689657,-0.23822421454714376,-0.8058239635630073
-0.24171508620689655,-0.23822421454714376,-0.8058239635630073
-0.24165258620689656,-0.23822421454714376,-0.8058239635630073
-0.24159008620689656,-0.23451309753626523,-0.8058239635630073
-0.24152758620689657,-0.23822421454714376,-0.8058239635630073
-0.24146508620689655,-0.23451309753626523,-0.8058239635630073
-0.24140258620689656,-0.23822421454714376,-0.8058239635630073
-0.24134008620689656,-0.23822421454714376,-0.8058239635630073
-0.24127758620689657,-0.23822421454714376,-0.8095497287490427
-0.24121508620689655,-0.23822421454714376,-0.8095497287490427
-0.24115258620689656,-0.23822421454714376,-0.8058239635630073
-0.24109008620689656,-0.23822421454714376,-0.8058239635630073
-0.24102758620689657,-0.23822421454714376,-0.8058239635630073
-0.24096508620689655,-0.23822421454714376,-0.8058239635630073
-0.24090258620689656,-0.23822421454714376,-0.8058239635630073
-0.24084008620689656,-0.23822421454714376,-0.8058239635630073
-0.24077758620689657,-0.23822421454714376,-0.8058239635630073
-0.24071508620689655,-0.23822421454714376,-0.8058239635630073
-0.24065258620689656,-0.23822421454714376,-0.8058239635630073
-0.24059008620689656,-0.23451309753626523,-0.8095497287490427
-0.24052758620689657,-0.23451309753626523,-0.8058239635630073
-0.24046508620689655,-0.23451309753626523,-0.8058239635630073
-0.24040258620689656,-0.23822421454714376,-0.8058239635630073
-0.24034008620689656,-0.23822421454714376,-0.8058239635630073
-0.24027758620689657,-0.23822421454714376,-0.8058239635630073
-0.24021508620689655,-0.23822421454714376,-0.8058239635630073
-0.24015258620689656,-0.23451309753626523,-0.8058239635630073
-0.24009008620689656,-0.23822421454714376,-0.8058239635630073
-0.24002758620689657,0.025265093225231232,-0.8058239635630073
-0.23996508620689655,0.786044080455328,-0.6269872346333097
-0.23990258620689656,0.778621846433571,-0.17989541230906578
-0.23984008620689656,0.778621846433571,0.3268086529917441
-0.23977758620689657,0.778621846433571,0.7925293012461649
-0.23971508620689655,0.778621846433571,1.1837346457798783
-0.23965258620689656,0.778621846433571,1.50415045177892
-0.23959008620689656,0.778621846433571,1.7575024844293248
-0.23952758620689657,0.778621846433571,1.9549680392891993
-0.23946508620689655,0.778621846433571,2.1039986467306138
-0.23940258620689656,0.7749107294226925,2.2157716023116754
-0.23934008620689656,0.778621846433571,2.297738436404453
-0.23927758620689657,0.778621846433571,2.361076444567054
-0.23921508620689655,0.778621846433571,2.4095113919855145
-0.23915258620689656,0.778621846433571,2.4430432786598324
-0.23909008620689656,0.778621846433571,2.4653978697760444
-0.23902758620689657,0.778621846433571,2.4840266957062216
-0.23896508620689655,0.778621846433571,2.4952039912643276
-0.23890258620689656,0.778621846433571,2.5063812868224336
-0.23884008620689656,0.778621846433571,2.513832817194504
-0.23877758620689657,0.778621846433571,2.5175585823805395
-0.23871508620689655,0.778621846433571,2.525010112752611
-0.23865258620689656,0.778621846433571,2.525010112752611
-0.23859008620689656,0.778621846433571,2.5287358779386455
-0.23852758620689657,0.778621846433571,2.532461643124681
-0.23846508620689655,0.778621846433571,2.532461643124681
-0.23840258620689656,0.778621846433571,2.532461643124681
-0.23834008620689656,0.778621846433571,2.5361874083107168
-0.23827758620689657,0.778621846433571,2.5361874083107168
-0.23821508620689655,0.778621846433571,2.5361874083107168
-0.23815258620689655,0.778621846433571,2.5361874083107168
-0.23809008620689656,0.778621846433571,2.5399131734967515
-0.23802758620689657,0.7749107294226925,2.5399131734967515
-0.23796508620689655,0.778621846433571,2.5399131734967515
-0.23790258620689655,0.778621846433571,2.5361874083107168
-0.23784008620689656,0.778621846433571,2.5399131734967515
-0.23777758620689657,0.778621846433571,2.5399131734967515
-0.23771508620689655,0.778621846433571,2.5399131734967515
-0.23765258620689655,0.778621846433571,2.543638938682787
-0.23759008620689656,0.778621846433571,2.5399131734967515
-0.23752758620689657,0.778621846433571,2.5399131734967515
-0.23746508620689655,0.778621846433571,2.543638938682787
-0.23740258620689655,0.778621846433571,2.543638938682787
-0.23734008620689656,0.778621846433571,2.543638938682787
-0.23727758620689657,0.778621846433571,2.543638938682787
-0.23721508620689655,0.778621846433571,2.543638938682787
-0.23715258620689655,0.778621846433571,2.5399131734967515
-0.23709008620689656,0.778621846433571,2.543638938682787
-0.23702758620689657,0.778621846433571,2.543638938682787
-0.23696508620689655,0.778621846433571,2.543638938682787
-0.23690258620689655,0.778621846433571,2.543638938682787
-0.23684008620689656,0.778621846433571,2.543638938682787
-0.23677758620689657,0.778621846433571,2.543638938682787
-0.23671508620689655,0.778621846433571,2.543638938682787
-0.23665258620689655,0.7749107294226925,2.543638938682787
-0.23659008620689656,0.778621846433571,2.543638938682787
-0.23652758620689657,0.7749107294226925,2.543638938682787
-0.23646508620689655,0.778621846433571,2.543638938682787
-0.23640258620689655,0.7749107294226925,2.543638938682787
-0.23634008620689656,0.7749107294226925,2.543638938682787
-0.23627758620689657,0.778621846433571,2.543638938682787
-0.23621508620689655,0.7749107294226925,2.543638938682787
-0.23615258620689655,0.778621846433571,2.543638938682787
-0.23609008620689656,0.778621846433571,2.543638938682787
-0.23602758620689657,0.778621846433571,2.543638938682787
-0.23596508620689655,0.778621846433571,2.543638938682787
-0.23590258620689655,0.778621846433571,2.543638938682787
